%YAML 1.1
%TAG !u! tag:unity3d.com,2011:
--- !u!114 &11400000
MonoBehaviour:
  m_ObjectHideFlags: 0
  m_CorrespondingSourceObject: {fileID: 0}
  m_PrefabInstance: {fileID: 0}
  m_PrefabAsset: {fileID: 0}
  m_GameObject: {fileID: 0}
  m_Enabled: 1
  m_EditorHideFlags: 0
  m_Script: {fileID: 11500000, guid: d0a2909cd991ea446890c579068a3925, type: 3}
  m_Name: LevelData 2
  m_EditorClassIdentifier: 
  levelNumber: 2
  howMuchScorePoints: 35
  backgroundTop: {fileID: 21300000, guid: d9b31ebd60af68c469212c1a9f513e74, type: 3}
  backgroundBottom: {fileID: 21300000, guid: d9b31ebd60af68c469212c1a9f513e74, type: 3}
  shooterActivateWaitingTime: 1.5
  enemyWaitSpawnTime: 0.8
  fireRateModifier: 0.6
